{
  "extends": [
    "gitlab>ATemplates/renovate-presets:containers-renovate"
  ],
  "packageRules": [
    {
      "matchPackageNames": ["koalaman/shellcheck"],
      "extractVersion": "^v(?<version>.*)$"
    },
    {
      "matchPackageNames": [
        "registry.gitlab.com/akontainers/alpine",
        "registry.gitlab.com/akontainers/apkbuild-tools"
      ],
      "matchUpdateTypes": ["patch", "digest"],
      "automerge": true,
      "platformAutomerge": true
    },
    {
      "matchPackageNames": ["koalaman/shellcheck"],
      "matchUpdateTypes": ["major", "minor"],
      "matchCurrentVersion": "!/^0\\.10/",
      "enabled": false
    },
    {
      "matchDatasources": ["repology"],
      "groupName": "packages"
    }
  ],
  "assignees": ["AKorezin"]
}
